<mxfile host="app.diagrams.net" modified="2022-06-19T15:38:28.179Z" agent="5.0 (X11; Linux x86_64) AppleWebKit/537.36 (KHTML, like Gecko) Chrome/102.0.5005.124 Safari/537.36 Edg/102.0.1245.44" etag="gKgmlaq4zEZ1nlPZ-68D" version="20.0.1" type="gitlab">
  <diagram id="LcSlDMsjTLarFpNEvNxw" name="Architecture - AWS Serverless">
    <mxGraphModel dx="1239" dy="793" grid="1" gridSize="10" guides="1" tooltips="1" connect="1" arrows="1" fold="1" page="1" pageScale="1" pageWidth="850" pageHeight="1100" math="0" shadow="0">
      <root>
        <mxCell id="0" />
        <mxCell id="1" parent="0" />
        <mxCell id="PDwleC-D-qJd5b1sAE_l-14" value="VPC - us-east-1 region" style="points=[[0,0],[0.25,0],[0.5,0],[0.75,0],[1,0],[1,0.25],[1,0.5],[1,0.75],[1,1],[0.75,1],[0.5,1],[0.25,1],[0,1],[0,0.75],[0,0.5],[0,0.25]];outlineConnect=0;html=1;whiteSpace=wrap;fontSize=12;fontStyle=1;container=1;pointerEvents=0;collapsible=0;recursiveResize=0;shape=mxgraph.aws4.group;grIcon=mxgraph.aws4.group_vpc;strokeColor=#666666;fillColor=#f5f5f5;verticalAlign=top;align=left;spacingLeft=30;fontColor=#333333;dashed=0;" vertex="1" parent="1">
          <mxGeometry x="343.25" y="60" width="476.75" height="510" as="geometry" />
        </mxCell>
        <mxCell id="PDwleC-D-qJd5b1sAE_l-8" value="Assets CDN&lt;br&gt;(Cloudfront)" style="outlineConnect=0;dashed=0;verticalLabelPosition=bottom;verticalAlign=top;align=center;html=1;shape=mxgraph.aws3.cloudfront;fillColor=#F58536;gradientColor=none;" vertex="1" parent="PDwleC-D-qJd5b1sAE_l-14">
          <mxGeometry x="405.48" y="70.5" width="47.08" height="53.75" as="geometry" />
        </mxCell>
        <mxCell id="PDwleC-D-qJd5b1sAE_l-17" value="Anti DDOS" style="edgeStyle=orthogonalEdgeStyle;rounded=0;orthogonalLoop=1;jettySize=auto;html=1;exitX=1;exitY=0.8;exitDx=0;exitDy=0;exitPerimeter=0;entryX=0;entryY=0.56;entryDx=0;entryDy=0;entryPerimeter=0;fontSize=13;fontColor=#000000;" edge="1" parent="PDwleC-D-qJd5b1sAE_l-14" source="PDwleC-D-qJd5b1sAE_l-11" target="PDwleC-D-qJd5b1sAE_l-16">
          <mxGeometry relative="1" as="geometry">
            <Array as="points">
              <mxPoint x="107" y="116" />
              <mxPoint x="107" y="224" />
            </Array>
          </mxGeometry>
        </mxCell>
        <mxCell id="PDwleC-D-qJd5b1sAE_l-21" value="/authenticate&lt;br&gt;or /signin" style="edgeStyle=orthogonalEdgeStyle;rounded=0;orthogonalLoop=1;jettySize=auto;html=1;exitX=0.5;exitY=1;exitDx=0;exitDy=0;exitPerimeter=0;entryX=0;entryY=0.5;entryDx=0;entryDy=0;entryPerimeter=0;fontSize=13;fontColor=#000000;fontStyle=1" edge="1" parent="PDwleC-D-qJd5b1sAE_l-14" source="PDwleC-D-qJd5b1sAE_l-11" target="PDwleC-D-qJd5b1sAE_l-20">
          <mxGeometry relative="1" as="geometry">
            <Array as="points">
              <mxPoint x="57" y="135" />
              <mxPoint x="57" y="387" />
            </Array>
          </mxGeometry>
        </mxCell>
        <mxCell id="PDwleC-D-qJd5b1sAE_l-11" value="API Gateway" style="outlineConnect=0;dashed=0;verticalLabelPosition=bottom;verticalAlign=top;align=center;html=1;shape=mxgraph.aws3.api_gateway;fillColor=#D9A741;gradientColor=none;" vertex="1" parent="PDwleC-D-qJd5b1sAE_l-14">
          <mxGeometry x="-23.25" y="41.75" width="76.5" height="93" as="geometry" />
        </mxCell>
        <mxCell id="PDwleC-D-qJd5b1sAE_l-12" value="AWS Lambda&lt;br&gt;Function" style="outlineConnect=0;dashed=0;verticalLabelPosition=bottom;verticalAlign=top;align=center;html=1;shape=mxgraph.aws3.lambda_function;fillColor=#F58534;gradientColor=none;fontSize=13;" vertex="1" parent="PDwleC-D-qJd5b1sAE_l-14">
          <mxGeometry x="276.75" y="52.25" width="69" height="72" as="geometry" />
        </mxCell>
        <mxCell id="PDwleC-D-qJd5b1sAE_l-13" value="/api" style="edgeStyle=orthogonalEdgeStyle;rounded=0;orthogonalLoop=1;jettySize=auto;html=1;exitX=0.65;exitY=0.5;exitDx=0;exitDy=0;exitPerimeter=0;entryX=0;entryY=0.5;entryDx=0;entryDy=0;entryPerimeter=0;fontSize=13;fontStyle=1" edge="1" parent="PDwleC-D-qJd5b1sAE_l-14" source="PDwleC-D-qJd5b1sAE_l-11" target="PDwleC-D-qJd5b1sAE_l-12">
          <mxGeometry x="0.1209" y="-12" relative="1" as="geometry">
            <Array as="points">
              <mxPoint x="57" y="88" />
              <mxPoint x="57" y="88" />
            </Array>
            <mxPoint as="offset" />
          </mxGeometry>
        </mxCell>
        <mxCell id="PDwleC-D-qJd5b1sAE_l-16" value="AWS&lt;br&gt;Web Application Firewall&lt;br&gt;(WAF)" style="outlineConnect=0;dashed=0;verticalLabelPosition=bottom;verticalAlign=top;align=center;html=1;shape=mxgraph.aws3.waf;fillColor=#759C3E;gradientColor=none;fontSize=13;fontColor=#000000;" vertex="1" parent="PDwleC-D-qJd5b1sAE_l-14">
          <mxGeometry x="196.57999999999998" y="190" width="49.35" height="60" as="geometry" />
        </mxCell>
        <mxCell id="PDwleC-D-qJd5b1sAE_l-19" style="edgeStyle=orthogonalEdgeStyle;rounded=0;orthogonalLoop=1;jettySize=auto;html=1;exitX=0.5;exitY=1;exitDx=0;exitDy=0;exitPerimeter=0;entryX=0.5;entryY=0;entryDx=0;entryDy=0;entryPerimeter=0;fontSize=13;fontColor=#000000;" edge="1" parent="PDwleC-D-qJd5b1sAE_l-14" source="PDwleC-D-qJd5b1sAE_l-8" target="PDwleC-D-qJd5b1sAE_l-18">
          <mxGeometry relative="1" as="geometry" />
        </mxCell>
        <mxCell id="PDwleC-D-qJd5b1sAE_l-15" value="/home" style="edgeStyle=orthogonalEdgeStyle;rounded=0;orthogonalLoop=1;jettySize=auto;html=1;exitX=0.5;exitY=0;exitDx=0;exitDy=0;exitPerimeter=0;entryX=0.5;entryY=0;entryDx=0;entryDy=0;entryPerimeter=0;fontSize=13;fontColor=#000000;fontStyle=1" edge="1" parent="PDwleC-D-qJd5b1sAE_l-14" source="PDwleC-D-qJd5b1sAE_l-11" target="PDwleC-D-qJd5b1sAE_l-8">
          <mxGeometry relative="1" as="geometry">
            <Array as="points">
              <mxPoint x="429" y="42" />
            </Array>
          </mxGeometry>
        </mxCell>
        <mxCell id="PDwleC-D-qJd5b1sAE_l-18" value="Assets regional&lt;br&gt;S3 Bucket" style="outlineConnect=0;dashed=0;verticalLabelPosition=bottom;verticalAlign=top;align=center;html=1;shape=mxgraph.aws3.s3;fillColor=#E05243;gradientColor=none;fontSize=13;fontColor=#000000;" vertex="1" parent="PDwleC-D-qJd5b1sAE_l-14">
          <mxGeometry x="404.48" y="225" width="49.35" height="60" as="geometry" />
        </mxCell>
        <mxCell id="PDwleC-D-qJd5b1sAE_l-20" value="Amazon Cognito&lt;br&gt;(User pool)" style="outlineConnect=0;dashed=0;verticalLabelPosition=bottom;verticalAlign=top;align=center;html=1;shape=mxgraph.aws3.cognito;fillColor=#AD688B;gradientColor=none;fontSize=13;fontColor=#000000;" vertex="1" parent="PDwleC-D-qJd5b1sAE_l-14">
          <mxGeometry x="81.75" y="340" width="76.5" height="93" as="geometry" />
        </mxCell>
        <mxCell id="PDwleC-D-qJd5b1sAE_l-5" style="edgeStyle=orthogonalEdgeStyle;rounded=0;orthogonalLoop=1;jettySize=auto;html=1;exitX=0.5;exitY=0;exitDx=0;exitDy=0;exitPerimeter=0;entryX=0.07;entryY=0.4;entryDx=0;entryDy=0;entryPerimeter=0;" edge="1" parent="1" source="PDwleC-D-qJd5b1sAE_l-1" target="PDwleC-D-qJd5b1sAE_l-4">
          <mxGeometry relative="1" as="geometry">
            <Array as="points">
              <mxPoint x="55" y="142" />
            </Array>
          </mxGeometry>
        </mxCell>
        <mxCell id="PDwleC-D-qJd5b1sAE_l-1" value="User" style="shape=umlActor;verticalLabelPosition=bottom;verticalAlign=top;html=1;outlineConnect=0;" vertex="1" parent="1">
          <mxGeometry x="40" y="150" width="30" height="60" as="geometry" />
        </mxCell>
        <mxCell id="PDwleC-D-qJd5b1sAE_l-6" style="edgeStyle=orthogonalEdgeStyle;rounded=0;orthogonalLoop=1;jettySize=auto;html=1;exitX=0.875;exitY=0.5;exitDx=0;exitDy=0;exitPerimeter=0;" edge="1" parent="1" source="PDwleC-D-qJd5b1sAE_l-4" target="PDwleC-D-qJd5b1sAE_l-11">
          <mxGeometry relative="1" as="geometry">
            <mxPoint x="370" y="136" as="targetPoint" />
          </mxGeometry>
        </mxCell>
        <mxCell id="PDwleC-D-qJd5b1sAE_l-4" value="" style="ellipse;shape=cloud;whiteSpace=wrap;html=1;verticalAlign=top;" vertex="1" parent="1">
          <mxGeometry x="180" y="118.25" width="80" height="60" as="geometry" />
        </mxCell>
        <mxCell id="PDwleC-D-qJd5b1sAE_l-7" value="familytreemaker.xyz&lt;br&gt;(Route 53&lt;br&gt;Latency Based Routing)" style="text;html=1;strokeColor=none;fillColor=none;align=center;verticalAlign=middle;whiteSpace=wrap;rounded=0;" vertex="1" parent="1">
          <mxGeometry x="160" y="200" width="120" height="30" as="geometry" />
        </mxCell>
      </root>
    </mxGraphModel>
  </diagram>
</mxfile>
